%YAML 1.1
%TAG !u! tag:unity3d.com,2011:
--- !u!74 &7400000
AnimationClip:
  m_ObjectHideFlags: 0
  m_CorrespondingSourceObject: {fileID: 0}
  m_PrefabInstance: {fileID: 0}
  m_PrefabAsset: {fileID: 0}
  m_Name: VictoryWithTranslation
  serializedVersion: 6
  m_Legacy: 0
  m_Compressed: 0
  m_UseHighQualityCurve: 1
  m_RotationCurves: []
  m_CompressedRotationCurves: []
  m_EulerCurves: []
  m_PositionCurves: []
  m_ScaleCurves: []
  m_FloatCurves:
  - curve:
      serializedVersion: 2
      m_Curve:
      - serializedVersion: 3
        time: 0
        value: 0
        inSlope: Infinity
        outSlope: Infinity
        tangentMode: 103
        weightedMode: 0
        inWeight: 0
        outWeight: 0
      - serializedVersion: 3
        time: 0.6666667
        value: 1
        inSlope: Infinity
        outSlope: Infinity
        tangentMode: 103
        weightedMode: 0
        inWeight: 0
        outWeight: 0
      m_PreInfinity: 2
      m_PostInfinity: 2
      m_RotationOrder: 4
    attribute: m_IsActive
    path: Image
    classID: 1
    script: {fileID: 0}
  - curve:
      serializedVersion: 2
      m_Curve:
      - serializedVersion: 3
        time: 0
        value: 0
        inSlope: Infinity
        outSlope: Infinity
        tangentMode: 103
        weightedMode: 0
        inWeight: 0
        outWeight: 0
      - serializedVersion: 3
        time: 1
        value: 1
        inSlope: Infinity
        outSlope: Infinity
        tangentMode: 103
        weightedMode: 0
        inWeight: 0
        outWeight: 0
      m_PreInfinity: 2
      m_PostInfinity: 2
      m_RotationOrder: 4
    attribute: m_IsActive
    path: Button
    classID: 1
    script: {fileID: 0}
  m_PPtrCurves:
  - curve:
    - time: 0
      value: {fileID: 21300000, guid: ddd12d74dd4e86c5086542b60513d392, type: 3}
    - time: 0.06666667
      value: {fileID: 21300000, guid: 9eba7a08aa004ab32925bed6589179af, type: 3}
    - time: 0.13333334
      value: {fileID: 21300000, guid: f5df6def450a385e2ba7a5ca8596d2c6, type: 3}
    - time: 0.2
      value: {fileID: 21300000, guid: 78d58552878d12dd482a5d2afa875b5a, type: 3}
    - time: 0.26666668
      value: {fileID: 21300000, guid: bfdb6e247cf47d19bba1d1e971973609, type: 3}
    - time: 0.33333334
      value: {fileID: 21300000, guid: 5870d17e6d5cf9cccb0d72abe6da7013, type: 3}
    - time: 0.4
      value: {fileID: 21300000, guid: 4e5a92e32866aac0b97fe8889775ee48, type: 3}
    - time: 0.46666667
      value: {fileID: 21300000, guid: 584cb97f2823a58adb835975968f631a, type: 3}
    - time: 0.53333336
      value: {fileID: 21300000, guid: 62fb0a882924711fd9adfbf033e9c591, type: 3}
    - time: 0.6
      value: {fileID: 21300000, guid: 1bb4884906880cfd7bece5e29406e03d, type: 3}
    - time: 0.6666667
      value: {fileID: 21300000, guid: a5c6d050317655ed89126a60da50a06a, type: 3}
    - time: 0.73333335
      value: {fileID: 21300000, guid: a82cb08c769431dbcb11a8a8daa4b5c7, type: 3}
    - time: 0.8
      value: {fileID: 21300000, guid: e38c2dae27cfdadca8714771b693cd1b, type: 3}
    - time: 0.8666667
      value: {fileID: 21300000, guid: 654833dceefbfdf689934a8d64453e88, type: 3}
    - time: 0.93333334
      value: {fileID: 21300000, guid: 83063a9dd24911b4eaa0682bc9935502, type: 3}
    - time: 1
      value: {fileID: 21300000, guid: e0f3532e99f624525a0c117a204910e2, type: 3}
    attribute: m_Sprite
    path: 
    classID: 114
    script: {fileID: 11500000, guid: fe87c0e1cc204ed48ad3b37840f39efc, type: 3}
  m_SampleRate: 60
  m_WrapMode: 0
  m_Bounds:
    m_Center: {x: 0, y: 0, z: 0}
    m_Extent: {x: 0, y: 0, z: 0}
  m_ClipBindingConstant:
    genericBindings:
    - serializedVersion: 2
      path: 83635035
      attribute: 2086281974
      script: {fileID: 0}
      typeID: 1
      customType: 0
      isPPtrCurve: 0
    - serializedVersion: 2
      path: 1034594571
      attribute: 2086281974
      script: {fileID: 0}
      typeID: 1
      customType: 0
      isPPtrCurve: 0
    - serializedVersion: 2
      path: 0
      attribute: 2015549526
      script: {fileID: 11500000, guid: fe87c0e1cc204ed48ad3b37840f39efc, type: 3}
      typeID: 114
      customType: 0
      isPPtrCurve: 1
    pptrCurveMapping:
    - {fileID: 21300000, guid: ddd12d74dd4e86c5086542b60513d392, type: 3}
    - {fileID: 21300000, guid: 9eba7a08aa004ab32925bed6589179af, type: 3}
    - {fileID: 21300000, guid: f5df6def450a385e2ba7a5ca8596d2c6, type: 3}
    - {fileID: 21300000, guid: 78d58552878d12dd482a5d2afa875b5a, type: 3}
    - {fileID: 21300000, guid: bfdb6e247cf47d19bba1d1e971973609, type: 3}
    - {fileID: 21300000, guid: 5870d17e6d5cf9cccb0d72abe6da7013, type: 3}
    - {fileID: 21300000, guid: 4e5a92e32866aac0b97fe8889775ee48, type: 3}
    - {fileID: 21300000, guid: 584cb97f2823a58adb835975968f631a, type: 3}
    - {fileID: 21300000, guid: 62fb0a882924711fd9adfbf033e9c591, type: 3}
    - {fileID: 21300000, guid: 1bb4884906880cfd7bece5e29406e03d, type: 3}
    - {fileID: 21300000, guid: a5c6d050317655ed89126a60da50a06a, type: 3}
    - {fileID: 21300000, guid: a82cb08c769431dbcb11a8a8daa4b5c7, type: 3}
    - {fileID: 21300000, guid: e38c2dae27cfdadca8714771b693cd1b, type: 3}
    - {fileID: 21300000, guid: 654833dceefbfdf689934a8d64453e88, type: 3}
    - {fileID: 21300000, guid: 83063a9dd24911b4eaa0682bc9935502, type: 3}
    - {fileID: 21300000, guid: e0f3532e99f624525a0c117a204910e2, type: 3}
  m_AnimationClipSettings:
    serializedVersion: 2
    m_AdditiveReferencePoseClip: {fileID: 0}
    m_AdditiveReferencePoseTime: 0
    m_StartTime: 0
    m_StopTime: 1.0166667
    m_OrientationOffsetY: 0
    m_Level: 0
    m_CycleOffset: 0
    m_HasAdditiveReferencePose: 0
    m_LoopTime: 0
    m_LoopBlend: 0
    m_LoopBlendOrientation: 0
    m_LoopBlendPositionY: 0
    m_LoopBlendPositionXZ: 0
    m_KeepOriginalOrientation: 0
    m_KeepOriginalPositionY: 1
    m_KeepOriginalPositionXZ: 0
    m_HeightFromFeet: 0
    m_Mirror: 0
  m_EditorCurves:
  - curve:
      serializedVersion: 2
      m_Curve:
      - serializedVersion: 3
        time: 0
        value: 0
        inSlope: Infinity
        outSlope: Infinity
        tangentMode: 103
        weightedMode: 0
        inWeight: 0
        outWeight: 0
      - serializedVersion: 3
        time: 0.6666667
        value: 1
        inSlope: Infinity
        outSlope: Infinity
        tangentMode: 103
        weightedMode: 0
        inWeight: 0
        outWeight: 0
      m_PreInfinity: 2
      m_PostInfinity: 2
      m_RotationOrder: 4
    attribute: m_IsActive
    path: Image
    classID: 1
    script: {fileID: 0}
  - curve:
      serializedVersion: 2
      m_Curve:
      - serializedVersion: 3
        time: 0
        value: 0
        inSlope: Infinity
        outSlope: Infinity
        tangentMode: 103
        weightedMode: 0
        inWeight: 0
        outWeight: 0
      - serializedVersion: 3
        time: 1
        value: 1
        inSlope: Infinity
        outSlope: Infinity
        tangentMode: 103
        weightedMode: 0
        inWeight: 0
        outWeight: 0
      m_PreInfinity: 2
      m_PostInfinity: 2
      m_RotationOrder: 4
    attribute: m_IsActive
    path: Button
    classID: 1
    script: {fileID: 0}
  m_EulerEditorCurves: []
  m_HasGenericRootTransform: 0
  m_HasMotionFloatCurves: 0
  m_Events: []
