%YAML 1.1
%TAG !u! tag:unity3d.com,2011:
--- !u!114 &11400000
MonoBehaviour:
  m_ObjectHideFlags: 0
  m_CorrespondingSourceObject: {fileID: 0}
  m_PrefabInstance: {fileID: 0}
  m_PrefabAsset: {fileID: 0}
  m_GameObject: {fileID: 0}
  m_Enabled: 1
  m_EditorHideFlags: 0
  m_Script: {fileID: 11500000, guid: 5be51871efa6c3e4eae1703925c8f5ac, type: 3}
  m_Name: StatusExplainer
  m_EditorClassIdentifier: 
  m_SharedTableData: {fileID: 11400000, guid: e2b45c388134a7e7280f725b8070d321, type: 2}
  m_Tables:
  - {fileID: 11400000, guid: 1a49a59542050c0b493f7c6222282897, type: 2}
  - {fileID: 11400000, guid: 3abec745edbd8b107a3ce4048de86c85, type: 2}
  m_Extensions: []
  m_Group: String Table
  references:
    version: 1
