%YAML 1.1
%TAG !u! tag:unity3d.com,2011:
--- !u!114 &11400000
MonoBehaviour:
  m_ObjectHideFlags: 0
  m_CorrespondingSourceObject: {fileID: 0}
  m_PrefabInstance: {fileID: 0}
  m_PrefabAsset: {fileID: 0}
  m_GameObject: {fileID: 0}
  m_Enabled: 1
  m_EditorHideFlags: 0
  m_Script: {fileID: 11500000, guid: 2ebcd04cba6457a46904f9158605991b, type: 3}
  m_Name: Poem
  m_EditorClassIdentifier: 
  sprite: {fileID: 21300000, guid: 6eeea81c85c255b4eb72a8fac332dbe2, type: 3}
  bossThatIsSaved: {fileID: 11400000, guid: 32453b06385af6d4098d8c8880e88473, type: 2}
