%YAML 1.1
%TAG !u! tag:unity3d.com,2011:
--- !u!114 &11400000
MonoBehaviour:
  m_ObjectHideFlags: 0
  m_CorrespondingSourceObject: {fileID: 0}
  m_PrefabInstance: {fileID: 0}
  m_PrefabAsset: {fileID: 0}
  m_GameObject: {fileID: 0}
  m_Enabled: 1
  m_EditorHideFlags: 0
  m_Script: {fileID: 11500000, guid: 172a18591b97f584cb1c0b2ca717f4f1, type: 3}
  m_Name: Demo_GreatDamage
  m_EditorClassIdentifier: 
  cards:
  - {fileID: 7872347440392931497, guid: f7a2fc28e1e534147a232031ba059db0, type: 3}
  - {fileID: 7872347440392931497, guid: aecbea6e7f1962e4fb6f82294b8aaba4, type: 3}
  - {fileID: 7872347440392931497, guid: 214d94ca5f3f1b4478960b3486f13498, type: 3}
  - {fileID: 7872347440392931497, guid: b072d0c599fa74b478212c2509de2f3b, type: 3}
  - {fileID: 3909049224605205197, guid: e697327cb93b90d409aaf99b1c70a394, type: 3}
  - {fileID: 7179399998904961223, guid: 8bc6dfae29bec1d8abd7f4ac3f4ed6ee, type: 3}
