%YAML 1.1
%TAG !u! tag:unity3d.com,2011:
--- !u!114 &11400000
MonoBehaviour:
  m_ObjectHideFlags: 0
  m_CorrespondingSourceObject: {fileID: 0}
  m_PrefabInstance: {fileID: 0}
  m_PrefabAsset: {fileID: 0}
  m_GameObject: {fileID: 0}
  m_Enabled: 1
  m_EditorHideFlags: 0
  m_Script: {fileID: 11500000, guid: 172a18591b97f584cb1c0b2ca717f4f1, type: 3}
  m_Name: FinalPack_AllCards
  m_EditorClassIdentifier: 
  cards:
  - {fileID: 7872347440392931497, guid: f7a2fc28e1e534147a232031ba059db0, type: 3}
  - {fileID: 8497017385830067634, guid: 0d04ccd0f1a9e63408392056f3481306, type: 3}
  - {fileID: 7872347440392931497, guid: c61cd76c7a8350a42ba2707e71938e82, type: 3}
  - {fileID: 7872347440392931497, guid: 8e431e50af3d3ce4681ee2f195d278b3, type: 3}
  - {fileID: 7872347440392931497, guid: aecbea6e7f1962e4fb6f82294b8aaba4, type: 3}
  - {fileID: 7872347440392931497, guid: 214d94ca5f3f1b4478960b3486f13498, type: 3}
  - {fileID: 7872347440392931497, guid: f7ae5f7e01054cb4cba2a350a679d097, type: 3}
  - {fileID: 7872347440392931497, guid: 0fdd11b145a0c6c4bb5860e67f95ab8a, type: 3}
  - {fileID: 3909049224605205197, guid: 91e72e5d0404bf042aa9c4169f70cd06, type: 3}
  - {fileID: 7873947399426477044, guid: 3552cb138e3596a4cb20d5c55b1da21e, type: 3}
  - {fileID: 3909049224605205197, guid: a26a56a3d6c4b9343b6c2baf598cfe96, type: 3}
  - {fileID: 3909049224605205197, guid: 035912666da06f942a77b61d6146f825, type: 3}
  - {fileID: 3909049224605205197, guid: e697327cb93b90d409aaf99b1c70a394, type: 3}
  - {fileID: 3909049224605205197, guid: 1db19efb07586e04d82a06eb050889c7, type: 3}
  - {fileID: 7179399998904961223, guid: 74a1397b444be334ab45b24d11def084, type: 3}
  - {fileID: 7179399998904961223, guid: d8c9678643ba1f95d8c425c51a960aa0, type: 3}
  - {fileID: 7179399998904961223, guid: 01effba4a0f8f2530836b231a1d99471, type: 3}
  - {fileID: 7179399998904961223, guid: 8bc6dfae29bec1d8abd7f4ac3f4ed6ee, type: 3}
