%YAML 1.1
%TAG !u! tag:unity3d.com,2011:
--- !u!114 &11400000
MonoBehaviour:
  m_ObjectHideFlags: 0
  m_CorrespondingSourceObject: {fileID: 0}
  m_PrefabInstance: {fileID: 0}
  m_PrefabAsset: {fileID: 0}
  m_GameObject: {fileID: 0}
  m_Enabled: 1
  m_EditorHideFlags: 0
  m_Script: {fileID: 11500000, guid: fcd5ebaac18124c4b94d31d534bc9451, type: 3}
  m_Name: Def_MapSetup_07
  m_EditorClassIdentifier: 
  startingPoint: {x: -68, y: -234}
  initialPath:
    destination: A1
    intermediatePoints: []
  placeUnits:
  - name: A1
    startEnabled: 1
    placePrefab: {fileID: 8652442902188208427, guid: 1521635fb7740a34b9de80f0d2ea4f36,
      type: 3}
    rewardSetup: {fileID: 11400000, guid: ad8aaf2678dad8a4597990fcba95485c, type: 2}
    diff: 0
    battleSetupIndex: 2
    thisBattleSetup: {fileID: 0}
    position: {x: -68, y: -234, z: 0}
    paths:
    - destination: B1
      intermediatePoints: []
    enemyMaxStage: 0
    percentToHeal: 0
    chestCoins: 0
  - name: A2
    startEnabled: 1
    placePrefab: {fileID: 8652442902188208427, guid: 1521635fb7740a34b9de80f0d2ea4f36,
      type: 3}
    rewardSetup: {fileID: 11400000, guid: ad8aaf2678dad8a4597990fcba95485c, type: 2}
    diff: 0
    battleSetupIndex: 2
    thisBattleSetup: {fileID: 0}
    position: {x: 12, y: -234, z: 0}
    paths:
    - destination: B1
      intermediatePoints: []
    - destination: B2
      intermediatePoints: []
    enemyMaxStage: 0
    percentToHeal: 0
    chestCoins: 0
  - name: A3
    startEnabled: 1
    placePrefab: {fileID: 8652442902188208427, guid: 1521635fb7740a34b9de80f0d2ea4f36,
      type: 3}
    rewardSetup: {fileID: 11400000, guid: ad8aaf2678dad8a4597990fcba95485c, type: 2}
    diff: 0
    battleSetupIndex: 1
    thisBattleSetup: {fileID: 0}
    position: {x: 96, y: -231, z: 0}
    paths:
    - destination: B2
      intermediatePoints: []
    enemyMaxStage: 0
    percentToHeal: 0
    chestCoins: 0
  - name: B1
    startEnabled: 0
    placePrefab: {fileID: 8652442902188208427, guid: 1521635fb7740a34b9de80f0d2ea4f36,
      type: 3}
    rewardSetup: {fileID: 11400000, guid: ad8aaf2678dad8a4597990fcba95485c, type: 2}
    diff: 0
    battleSetupIndex: 1
    thisBattleSetup: {fileID: 0}
    position: {x: -32, y: -150, z: 0}
    paths:
    - destination: C1
      intermediatePoints: []
    - destination: C2
      intermediatePoints: []
    enemyMaxStage: 0
    percentToHeal: 0
    chestCoins: 0
  - name: B2
    startEnabled: 0
    placePrefab: {fileID: 8652442902188208427, guid: 297b9ba3c6f3fb94d94f4d60098003ae,
      type: 3}
    rewardSetup: {fileID: 0}
    diff: 0
    battleSetupIndex: 1
    thisBattleSetup: {fileID: 0}
    position: {x: 57, y: -150, z: 0}
    paths:
    - destination: C2
      intermediatePoints: []
    - destination: C3
      intermediatePoints: []
    enemyMaxStage: 0
    percentToHeal: 0
    chestCoins: 0
  - name: C1
    startEnabled: 0
    placePrefab: {fileID: 8652442902188208427, guid: 3a943d45a5003a44c8ff2be1a659214b,
      type: 3}
    rewardSetup: {fileID: 11400000, guid: 8193698a7b666d345a4065ca7a070c71, type: 2}
    diff: 0
    battleSetupIndex: 2
    thisBattleSetup: {fileID: 0}
    position: {x: -85, y: -63, z: 0}
    paths:
    - destination: D1
      intermediatePoints: []
    enemyMaxStage: 0
    percentToHeal: 0
    chestCoins: 5
  - name: C2
    startEnabled: 0
    placePrefab: {fileID: 8652442902188208427, guid: 1521635fb7740a34b9de80f0d2ea4f36,
      type: 3}
    rewardSetup: {fileID: 11400000, guid: 62f207ee7510b9740a2ec657e63d8be1, type: 2}
    diff: 1
    battleSetupIndex: 2
    thisBattleSetup: {fileID: 0}
    position: {x: 8, y: -57, z: 0}
    paths:
    - destination: D1
      intermediatePoints: []
    - destination: D2
      intermediatePoints: []
    enemyMaxStage: 0
    percentToHeal: 0
    chestCoins: 0
  - name: C3
    startEnabled: 0
    placePrefab: {fileID: 8652442902188208427, guid: 1521635fb7740a34b9de80f0d2ea4f36,
      type: 3}
    rewardSetup: {fileID: 11400000, guid: ad8aaf2678dad8a4597990fcba95485c, type: 2}
    diff: 0
    battleSetupIndex: 1
    thisBattleSetup: {fileID: 0}
    position: {x: 86, y: -58, z: 0}
    paths:
    - destination: D2
      intermediatePoints: []
    - destination: D3
      intermediatePoints: []
    enemyMaxStage: 0
    percentToHeal: 0
    chestCoins: 0
  - name: D1
    startEnabled: 0
    placePrefab: {fileID: 8652442902188208427, guid: 1521635fb7740a34b9de80f0d2ea4f36,
      type: 3}
    rewardSetup: {fileID: 11400000, guid: ad8aaf2678dad8a4597990fcba95485c, type: 2}
    diff: 1
    battleSetupIndex: 2
    thisBattleSetup: {fileID: 0}
    position: {x: -51, y: 13, z: 0}
    paths:
    - destination: E1
      intermediatePoints: []
    enemyMaxStage: 0
    percentToHeal: 0
    chestCoins: 0
  - name: D2
    startEnabled: 0
    placePrefab: {fileID: 8652442902188208427, guid: 3a943d45a5003a44c8ff2be1a659214b,
      type: 3}
    rewardSetup: {fileID: 11400000, guid: 8193698a7b666d345a4065ca7a070c71, type: 2}
    diff: 0
    battleSetupIndex: 2
    thisBattleSetup: {fileID: 0}
    position: {x: 47, y: 10, z: 0}
    paths:
    - destination: E1
      intermediatePoints: []
    enemyMaxStage: 0
    percentToHeal: 0
    chestCoins: 5
  - name: D3
    startEnabled: 0
    placePrefab: {fileID: 8652442902188208427, guid: b19a8e779b5517fca859f4783ed2564f,
      type: 3}
    rewardSetup: {fileID: 0}
    diff: 0
    battleSetupIndex: 2
    thisBattleSetup: {fileID: 0}
    position: {x: 115, y: 43, z: 0}
    paths:
    - destination: E2
      intermediatePoints: []
    enemyMaxStage: 0
    percentToHeal: 50
    chestCoins: 0
  - name: E1
    startEnabled: 0
    placePrefab: {fileID: 8652442902188208427, guid: 1521635fb7740a34b9de80f0d2ea4f36,
      type: 3}
    rewardSetup: {fileID: 11400000, guid: ad8aaf2678dad8a4597990fcba95485c, type: 2}
    diff: 2
    battleSetupIndex: 0
    thisBattleSetup: {fileID: 0}
    position: {x: -54, y: 97, z: 0}
    paths:
    - destination: F1
      intermediatePoints: []
    - destination: F2
      intermediatePoints: []
    enemyMaxStage: 1
    percentToHeal: 0
    chestCoins: 0
  - name: E2
    startEnabled: 0
    placePrefab: {fileID: 8652442902188208427, guid: 1521635fb7740a34b9de80f0d2ea4f36,
      type: 3}
    rewardSetup: {fileID: 11400000, guid: ad8aaf2678dad8a4597990fcba95485c, type: 2}
    diff: 1
    battleSetupIndex: 0
    thisBattleSetup: {fileID: 0}
    position: {x: 59, y: 93, z: 0}
    paths:
    - destination: F3
      intermediatePoints: []
    enemyMaxStage: 0
    percentToHeal: 0
    chestCoins: 0
  - name: F1
    startEnabled: 0
    placePrefab: {fileID: 8652442902188208427, guid: 297b9ba3c6f3fb94d94f4d60098003ae,
      type: 3}
    rewardSetup: {fileID: 0}
    diff: 0
    battleSetupIndex: 1
    thisBattleSetup: {fileID: 0}
    position: {x: -85, y: 176, z: 0}
    paths:
    - destination: G1
      intermediatePoints: []
    enemyMaxStage: 0
    percentToHeal: 0
    chestCoins: 0
  - name: F2
    startEnabled: 0
    placePrefab: {fileID: 8652442902188208427, guid: b19a8e779b5517fca859f4783ed2564f,
      type: 3}
    rewardSetup: {fileID: 0}
    diff: 0
    battleSetupIndex: 0
    thisBattleSetup: {fileID: 0}
    position: {x: -15, y: 157, z: 0}
    paths:
    - destination: G1
      intermediatePoints: []
    enemyMaxStage: 0
    percentToHeal: 50
    chestCoins: 0
  - name: F3
    startEnabled: 0
    placePrefab: {fileID: 8652442902188208427, guid: 1521635fb7740a34b9de80f0d2ea4f36,
      type: 3}
    rewardSetup: {fileID: 11400000, guid: ad8aaf2678dad8a4597990fcba95485c, type: 2}
    diff: 2
    battleSetupIndex: 0
    thisBattleSetup: {fileID: 0}
    position: {x: 81, y: 181, z: 0}
    paths:
    - destination: G1
      intermediatePoints: []
    enemyMaxStage: 1
    percentToHeal: 0
    chestCoins: 0
  - name: G1
    startEnabled: 0
    placePrefab: {fileID: 8652442902188208427, guid: 82be2fe05f5ed4043bafefff6d76e657,
      type: 3}
    rewardSetup: {fileID: 11400000, guid: 8193698a7b666d345a4065ca7a070c71, type: 2}
    diff: 3
    battleSetupIndex: 2
    thisBattleSetup: {fileID: 0}
    position: {x: 0, y: 278, z: 0}
    paths: []
    enemyMaxStage: 2
    percentToHeal: 0
    chestCoins: 0
