%YAML 1.1
%TAG !u! tag:unity3d.com,2011:
--- !u!74 &7400000
AnimationClip:
  m_ObjectHideFlags: 0
  m_CorrespondingSourceObject: {fileID: 0}
  m_PrefabInstance: {fileID: 0}
  m_PrefabAsset: {fileID: 0}
  m_Name: Lose
  serializedVersion: 6
  m_Legacy: 0
  m_Compressed: 0
  m_UseHighQualityCurve: 1
  m_RotationCurves: []
  m_CompressedRotationCurves: []
  m_EulerCurves: []
  m_PositionCurves: []
  m_ScaleCurves: []
  m_FloatCurves:
  - curve:
      serializedVersion: 2
      m_Curve:
      - serializedVersion: 3
        time: 0
        value: 0
        inSlope: Infinity
        outSlope: Infinity
        tangentMode: 103
        weightedMode: 0
        inWeight: 0
        outWeight: 0
      - serializedVersion: 3
        time: 1
        value: 1
        inSlope: Infinity
        outSlope: Infinity
        tangentMode: 103
        weightedMode: 0
        inWeight: 0
        outWeight: 0
      m_PreInfinity: 2
      m_PostInfinity: 2
      m_RotationOrder: 4
    attribute: m_IsActive
    path: RestartButton
    classID: 1
    script: {fileID: 0}
  m_PPtrCurves:
  - curve:
    - time: 0
      value: {fileID: 21300000, guid: 2d2a7fc5332cd944a90402ea0a228d4c, type: 3}
    - time: 0.15
      value: {fileID: 21300000, guid: 5d81c1d65ad1c164c98e316a4839d99e, type: 3}
    - time: 0.28333333
      value: {fileID: 21300000, guid: 43a7282be8b61d248b30479a687ee238, type: 3}
    - time: 0.43333334
      value: {fileID: 21300000, guid: e471a077d63df2243a99e0aca0234db8, type: 3}
    - time: 0.56666666
      value: {fileID: 21300000, guid: d2464d2a97bdb02459d8429a4b9adb42, type: 3}
    - time: 0.71666664
      value: {fileID: 21300000, guid: 502ccf3b42bbbf6499e717f638d40f6b, type: 3}
    - time: 0.85
      value: {fileID: 21300000, guid: 2bebf50d3c8dbe947b3a0ade230e1661, type: 3}
    - time: 1
      value: {fileID: 21300000, guid: df9dfe0ae1dc3cf4994abe66862a4354, type: 3}
    attribute: m_Sprite
    path: 
    classID: 114
    script: {fileID: 11500000, guid: fe87c0e1cc204ed48ad3b37840f39efc, type: 3}
  m_SampleRate: 60
  m_WrapMode: 0
  m_Bounds:
    m_Center: {x: 0, y: 0, z: 0}
    m_Extent: {x: 0, y: 0, z: 0}
  m_ClipBindingConstant:
    genericBindings:
    - serializedVersion: 2
      path: 2131964202
      attribute: 2086281974
      script: {fileID: 0}
      typeID: 1
      customType: 0
      isPPtrCurve: 0
    - serializedVersion: 2
      path: 0
      attribute: 2015549526
      script: {fileID: 11500000, guid: fe87c0e1cc204ed48ad3b37840f39efc, type: 3}
      typeID: 114
      customType: 0
      isPPtrCurve: 1
    pptrCurveMapping:
    - {fileID: 21300000, guid: 2d2a7fc5332cd944a90402ea0a228d4c, type: 3}
    - {fileID: 21300000, guid: 5d81c1d65ad1c164c98e316a4839d99e, type: 3}
    - {fileID: 21300000, guid: 43a7282be8b61d248b30479a687ee238, type: 3}
    - {fileID: 21300000, guid: e471a077d63df2243a99e0aca0234db8, type: 3}
    - {fileID: 21300000, guid: d2464d2a97bdb02459d8429a4b9adb42, type: 3}
    - {fileID: 21300000, guid: 502ccf3b42bbbf6499e717f638d40f6b, type: 3}
    - {fileID: 21300000, guid: 2bebf50d3c8dbe947b3a0ade230e1661, type: 3}
    - {fileID: 21300000, guid: df9dfe0ae1dc3cf4994abe66862a4354, type: 3}
  m_AnimationClipSettings:
    serializedVersion: 2
    m_AdditiveReferencePoseClip: {fileID: 0}
    m_AdditiveReferencePoseTime: 0
    m_StartTime: 0
    m_StopTime: 1.0166667
    m_OrientationOffsetY: 0
    m_Level: 0
    m_CycleOffset: 0
    m_HasAdditiveReferencePose: 0
    m_LoopTime: 0
    m_LoopBlend: 0
    m_LoopBlendOrientation: 0
    m_LoopBlendPositionY: 0
    m_LoopBlendPositionXZ: 0
    m_KeepOriginalOrientation: 0
    m_KeepOriginalPositionY: 1
    m_KeepOriginalPositionXZ: 0
    m_HeightFromFeet: 0
    m_Mirror: 0
  m_EditorCurves:
  - curve:
      serializedVersion: 2
      m_Curve:
      - serializedVersion: 3
        time: 0
        value: 0
        inSlope: Infinity
        outSlope: Infinity
        tangentMode: 103
        weightedMode: 0
        inWeight: 0
        outWeight: 0
      - serializedVersion: 3
        time: 1
        value: 1
        inSlope: Infinity
        outSlope: Infinity
        tangentMode: 103
        weightedMode: 0
        inWeight: 0
        outWeight: 0
      m_PreInfinity: 2
      m_PostInfinity: 2
      m_RotationOrder: 4
    attribute: m_IsActive
    path: RestartButton
    classID: 1
    script: {fileID: 0}
  m_EulerEditorCurves: []
  m_HasGenericRootTransform: 0
  m_HasMotionFloatCurves: 0
  m_Events: []
