%YAML 1.1
%TAG !u! tag:unity3d.com,2011:
--- !u!74 &7400000
AnimationClip:
  m_ObjectHideFlags: 0
  m_CorrespondingSourceObject: {fileID: 0}
  m_PrefabInstance: {fileID: 0}
  m_PrefabAsset: {fileID: 0}
  m_Name: Wisp
  serializedVersion: 6
  m_Legacy: 0
  m_Compressed: 0
  m_UseHighQualityCurve: 1
  m_RotationCurves: []
  m_CompressedRotationCurves: []
  m_EulerCurves: []
  m_PositionCurves: []
  m_ScaleCurves: []
  m_FloatCurves: []
  m_PPtrCurves:
  - curve:
    - time: 0
      value: {fileID: 21300000, guid: 1f2802adecccbd642b5be39eaf1d0a55, type: 3}
    - time: 0.033333335
      value: {fileID: 21300000, guid: 6ca0709842d834847801cfce216e51d3, type: 3}
    - time: 0.06666667
      value: {fileID: 21300000, guid: de51867c18afd7646ab218131d78c472, type: 3}
    - time: 0.1
      value: {fileID: 21300000, guid: 8454b1e5844914944a92fc61642d4ec1, type: 3}
    - time: 0.13333334
      value: {fileID: 21300000, guid: 95d9c05bdf5a29d4f930d76c4ea57d44, type: 3}
    - time: 0.16666667
      value: {fileID: 21300000, guid: be7382a9f7ab8f04ea2b4d35f98a0e22, type: 3}
    - time: 0.2
      value: {fileID: 21300000, guid: 5d2edf7edb37d344a8553fb9ab25b306, type: 3}
    - time: 0.23333333
      value: {fileID: 21300000, guid: 8768c69e86909944eb025ca58bdd9368, type: 3}
    - time: 0.26666668
      value: {fileID: 21300000, guid: f5c15287486464c4a8cd0614095302f6, type: 3}
    - time: 0.3
      value: {fileID: 21300000, guid: 0806ab1e019b4034283cdefd499864d9, type: 3}
    - time: 0.33333334
      value: {fileID: 21300000, guid: dbf7f1f1961117e488bcf97929a8e447, type: 3}
    - time: 0.36666667
      value: {fileID: 21300000, guid: f0daf0201a157cd43acec1d8beade28b, type: 3}
    - time: 0.4
      value: {fileID: 21300000, guid: 7522ecbab27c1894cbf988c0de004e2a, type: 3}
    - time: 0.43333334
      value: {fileID: 21300000, guid: 35bd40fd0e948dd4f8e5aef18bfc5548, type: 3}
    - time: 0.46666667
      value: {fileID: 21300000, guid: ca5dc0f5ed5debe4197311352d36a4c9, type: 3}
    - time: 0.5
      value: {fileID: 21300000, guid: 6197d890d2a7fa947aab75ad1cd1b9e9, type: 3}
    - time: 0.53333336
      value: {fileID: 21300000, guid: bf675ff3af727d04cba3de8bc18746cb, type: 3}
    - time: 0.56666666
      value: {fileID: 21300000, guid: 93fd5fb9959eb964481de16ea2c8fb54, type: 3}
    - time: 0.6
      value: {fileID: 21300000, guid: bf6ad58892e226846b0c66048db6dbce, type: 3}
    - time: 0.6333333
      value: {fileID: 21300000, guid: 80ea2d0e933631044bdd5734c7b1b760, type: 3}
    - time: 0.6666667
      value: {fileID: 21300000, guid: 26a51cee0592aeb48b819346d92aae17, type: 3}
    - time: 0.7
      value: {fileID: 21300000, guid: 20aedd1fb1427fa41ba174c4f0e50364, type: 3}
    - time: 0.73333335
      value: {fileID: 21300000, guid: 849834d3a8c59494983f5e46705a38eb, type: 3}
    - time: 0.76666665
      value: {fileID: 21300000, guid: d3e1d737c381d6b4882c059165857f6b, type: 3}
    - time: 0.8
      value: {fileID: 21300000, guid: 7f07d056264d6e4409ed6841d8c528be, type: 3}
    - time: 0.8333333
      value: {fileID: 21300000, guid: 68cb2702b175f0148942a6cf00a7773d, type: 3}
    - time: 0.8666667
      value: {fileID: 21300000, guid: 854a6c443296eb54b9ac03958226ad58, type: 3}
    attribute: m_Sprite
    path: 
    classID: 212
    script: {fileID: 0}
  m_SampleRate: 60
  m_WrapMode: 0
  m_Bounds:
    m_Center: {x: 0, y: 0, z: 0}
    m_Extent: {x: 0, y: 0, z: 0}
  m_ClipBindingConstant:
    genericBindings:
    - serializedVersion: 2
      path: 0
      attribute: 0
      script: {fileID: 0}
      typeID: 212
      customType: 23
      isPPtrCurve: 1
    pptrCurveMapping:
    - {fileID: 21300000, guid: 1f2802adecccbd642b5be39eaf1d0a55, type: 3}
    - {fileID: 21300000, guid: 6ca0709842d834847801cfce216e51d3, type: 3}
    - {fileID: 21300000, guid: de51867c18afd7646ab218131d78c472, type: 3}
    - {fileID: 21300000, guid: 8454b1e5844914944a92fc61642d4ec1, type: 3}
    - {fileID: 21300000, guid: 95d9c05bdf5a29d4f930d76c4ea57d44, type: 3}
    - {fileID: 21300000, guid: be7382a9f7ab8f04ea2b4d35f98a0e22, type: 3}
    - {fileID: 21300000, guid: 5d2edf7edb37d344a8553fb9ab25b306, type: 3}
    - {fileID: 21300000, guid: 8768c69e86909944eb025ca58bdd9368, type: 3}
    - {fileID: 21300000, guid: f5c15287486464c4a8cd0614095302f6, type: 3}
    - {fileID: 21300000, guid: 0806ab1e019b4034283cdefd499864d9, type: 3}
    - {fileID: 21300000, guid: dbf7f1f1961117e488bcf97929a8e447, type: 3}
    - {fileID: 21300000, guid: f0daf0201a157cd43acec1d8beade28b, type: 3}
    - {fileID: 21300000, guid: 7522ecbab27c1894cbf988c0de004e2a, type: 3}
    - {fileID: 21300000, guid: 35bd40fd0e948dd4f8e5aef18bfc5548, type: 3}
    - {fileID: 21300000, guid: ca5dc0f5ed5debe4197311352d36a4c9, type: 3}
    - {fileID: 21300000, guid: 6197d890d2a7fa947aab75ad1cd1b9e9, type: 3}
    - {fileID: 21300000, guid: bf675ff3af727d04cba3de8bc18746cb, type: 3}
    - {fileID: 21300000, guid: 93fd5fb9959eb964481de16ea2c8fb54, type: 3}
    - {fileID: 21300000, guid: bf6ad58892e226846b0c66048db6dbce, type: 3}
    - {fileID: 21300000, guid: 80ea2d0e933631044bdd5734c7b1b760, type: 3}
    - {fileID: 21300000, guid: 26a51cee0592aeb48b819346d92aae17, type: 3}
    - {fileID: 21300000, guid: 20aedd1fb1427fa41ba174c4f0e50364, type: 3}
    - {fileID: 21300000, guid: 849834d3a8c59494983f5e46705a38eb, type: 3}
    - {fileID: 21300000, guid: d3e1d737c381d6b4882c059165857f6b, type: 3}
    - {fileID: 21300000, guid: 7f07d056264d6e4409ed6841d8c528be, type: 3}
    - {fileID: 21300000, guid: 68cb2702b175f0148942a6cf00a7773d, type: 3}
    - {fileID: 21300000, guid: 854a6c443296eb54b9ac03958226ad58, type: 3}
  m_AnimationClipSettings:
    serializedVersion: 2
    m_AdditiveReferencePoseClip: {fileID: 0}
    m_AdditiveReferencePoseTime: 0
    m_StartTime: 0
    m_StopTime: 0.8833333
    m_OrientationOffsetY: 0
    m_Level: 0
    m_CycleOffset: 0
    m_HasAdditiveReferencePose: 0
    m_LoopTime: 1
    m_LoopBlend: 0
    m_LoopBlendOrientation: 0
    m_LoopBlendPositionY: 0
    m_LoopBlendPositionXZ: 0
    m_KeepOriginalOrientation: 0
    m_KeepOriginalPositionY: 1
    m_KeepOriginalPositionXZ: 0
    m_HeightFromFeet: 0
    m_Mirror: 0
  m_EditorCurves: []
  m_EulerEditorCurves: []
  m_HasGenericRootTransform: 0
  m_HasMotionFloatCurves: 0
  m_Events: []
