%YAML 1.1
%TAG !u! tag:unity3d.com,2011:
--- !u!114 &11400000
MonoBehaviour:
  m_ObjectHideFlags: 0
  m_CorrespondingSourceObject: {fileID: 0}
  m_PrefabInstance: {fileID: 0}
  m_PrefabAsset: {fileID: 0}
  m_GameObject: {fileID: 0}
  m_Enabled: 1
  m_EditorHideFlags: 0
  m_Script: {fileID: 11500000, guid: bbb281ee3bf0b054c82ac2347e9e782c, type: 3}
  m_Name: Localization-Assets-Portuguese (pt)
  m_EditorClassIdentifier: 
  m_GroupName: Localization-Assets-Portuguese (pt)
  m_Data:
    m_SerializedData: []
  m_GUID: 8c46b9e692231c4dcbc1c1d00e66ebfa
  m_SerializeEntries:
  - m_GUID: 38317856d068f8351b072ba71ea51385
    m_Address: Win R02-15
    m_ReadOnly: 1
    m_SerializedLabels:
    - Locale-pt
    FlaggedDuringContentUpdateRestriction: 0
  - m_GUID: dd8a7471ccff4c9428c7bcfc3a419885
    m_Address: Lose R02-09
    m_ReadOnly: 1
    m_SerializedLabels:
    - Locale-pt
    FlaggedDuringContentUpdateRestriction: 0
  - m_GUID: 8815871e1d6e63543b7b8e0423d61506
    m_Address: "Vit\xF3ria R00"
    m_ReadOnly: 1
    m_SerializedLabels:
    - Locale-pt
    FlaggedDuringContentUpdateRestriction: 0
  - m_GUID: 01fb6af170ca35f46948df1bb7ad5f16
    m_Address: Derrota R00
    m_ReadOnly: 1
    m_SerializedLabels:
    - Locale-pt
    FlaggedDuringContentUpdateRestriction: 0
  m_ReadOnly: 1
  m_Settings: {fileID: 11400000, guid: 6e6f9a6e8d5b20e4aacf488d59cf5b53, type: 2}
  m_SchemaSet:
    m_Schemas:
    - {fileID: 11400000, guid: c1f829fcae40c3ad1a2e241f55acd716, type: 2}
    - {fileID: 11400000, guid: 9a55fe84978e2acee9768fc453b8c84e, type: 2}
