%YAML 1.1
%TAG !u! tag:unity3d.com,2011:
--- !u!114 &11400000
MonoBehaviour:
  m_ObjectHideFlags: 0
  m_CorrespondingSourceObject: {fileID: 0}
  m_PrefabInstance: {fileID: 0}
  m_PrefabAsset: {fileID: 0}
  m_GameObject: {fileID: 0}
  m_Enabled: 1
  m_EditorHideFlags: 0
  m_Script: {fileID: 11500000, guid: bbb281ee3bf0b054c82ac2347e9e782c, type: 3}
  m_Name: Localization-Asset-Tables-Portuguese (pt)
  m_EditorClassIdentifier: 
  m_GroupName: Localization-Asset-Tables-Portuguese (pt)
  m_Data:
    m_SerializedData: []
  m_GUID: 5c17041ec38c04e73b13526da9efe4e5
  m_SerializeEntries:
  - m_GUID: 4ae149a49cb7a8ff89655cfefc4757e5
    m_Address: Sprites_pt
    m_ReadOnly: 1
    m_SerializedLabels:
    - Locale-pt
    FlaggedDuringContentUpdateRestriction: 0
  - m_GUID: 61e28289344f38ff0a41e4d0b63f6d5e
    m_Address: TextureTable_pt
    m_ReadOnly: 1
    m_SerializedLabels:
    - Locale-pt
    FlaggedDuringContentUpdateRestriction: 0
  m_ReadOnly: 1
  m_Settings: {fileID: 11400000, guid: 6e6f9a6e8d5b20e4aacf488d59cf5b53, type: 2}
  m_SchemaSet:
    m_Schemas:
    - {fileID: 11400000, guid: 28daef6cdde8e3eed8b23b0106c5d6a1, type: 2}
    - {fileID: 11400000, guid: 7559cbf03e753c9c0b3a9590f93d1f5f, type: 2}
