%YAML 1.1
%TAG !u! tag:unity3d.com,2011:
--- !u!1045 &1
EditorBuildSettings:
  m_ObjectHideFlags: 0
  serializedVersion: 2
  m_Scenes:
  - enabled: 1
    path: Assets/Scenes/AndroidScenes/MenuScene.unity
    guid: 71b06cd797ce7f44b9a68a9a1a8be74b
  - enabled: 1
    path: Assets/Scenes/AndroidScenes/RewardScene.unity
    guid: b883c59bce7c9d838bb4783ff843deea
  - enabled: 1
    path: Assets/Scenes/AndroidScenes/ShopScene.unity
    guid: bc35ba2567798a2e6ac6edabe574b2c5
  - enabled: 1
    path: Assets/Scenes/AndroidScenes/BattleScene.unity
    guid: 4f34df61156319c42a6ce07f49778ce1
  - enabled: 1
    path: Assets/Scenes/AndroidScenes/RestScene.unity
    guid: 9f3086af84e91a64792419691cef02e5
  - enabled: 1
    path: Assets/Scenes/AndroidScenes/UpgradeScene.unity
    guid: 400cf8bd38ed5bf408e611944d7fb168
  - enabled: 1
    path: Assets/Scenes/AndroidScenes/MapScene.unity
    guid: e6ef4409d33daf540ad963ed5d9e6e8c
  m_configObjects:
    com.unity.addressableassets: {fileID: 11400000, guid: 9fd9de1ef14dccf45afcfff6e9810b97,
      type: 2}
    com.unity.localization.settings: {fileID: 11400000, guid: f307d20731148234882f2e04930241b6,
      type: 2}
