%YAML 1.1
%TAG !u! tag:unity3d.com,2011:
--- !u!114 &11400000
MonoBehaviour:
  m_ObjectHideFlags: 0
  m_CorrespondingSourceObject: {fileID: 0}
  m_PrefabInstance: {fileID: 0}
  m_PrefabAsset: {fileID: 0}
  m_GameObject: {fileID: 0}
  m_Enabled: 0
  m_EditorHideFlags: 0
  m_Script: {fileID: 11500000, guid: 468a46d0ae32c3544b7d98094e6448a9, type: 3}
  m_Name: AddressableAssetSettings
  m_EditorClassIdentifier: 
  m_DefaultGroup: f6400e892c7d5d6489ae51f5e1d68b20
  m_OptimizeCatalogSize: 0
  m_BuildRemoteCatalog: 0
  m_BundleLocalCatalog: 0
  m_CatalogRequestsTimeout: 0
  m_DisableCatalogUpdateOnStart: 0
  m_IgnoreUnsupportedFilesInBuild: 0
  m_UniqueBundleIds: 0
  m_NonRecursiveBuilding: 0
  m_CCDEnabled: 0
  m_maxConcurrentWebRequests: 3
  m_ContiguousBundles: 0
  m_StripUnityVersionFromBundleBuild: 0
  m_DisableVisibleSubAssetRepresentations: 0
  m_ShaderBundleNaming: 0
  m_ShaderBundleCustomNaming: 
  m_MonoScriptBundleNaming: 0
  m_CheckForContentUpdateRestrictionsOption: 0
  m_MonoScriptBundleCustomNaming: 
  m_RemoteCatalogBuildPath:
    m_Id: 
  m_RemoteCatalogLoadPath:
    m_Id: 
  m_ContentStateBuildPathProfileVariableName: <default settings path>
  m_CustomContentStateBuildPath: 
  m_ContentStateBuildPath: 
  m_BuildAddressablesWithPlayerBuild: 0
  m_overridePlayerVersion: 
  m_GroupAssets:
  - {fileID: 11400000, guid: 7e1361c01a005f9429db1f9913c803bb, type: 2}
  - {fileID: 11400000, guid: a527829f130a2e34da0e9f4ea4aa0b0d, type: 2}
  - {fileID: 11400000, guid: ac1eb99b345759c4d87ca20ff047f734, type: 2}
  - {fileID: 11400000, guid: ed2588ea3051b704d91b0e12b98f4464, type: 2}
  - {fileID: 11400000, guid: 237e8c0669146004d9a831277fc6183d, type: 2}
  - {fileID: 11400000, guid: 438d95d3e3ece7b49bb4c1b3db9b5807, type: 2}
  - {fileID: 11400000, guid: 32cbef61823c32292876cdf3724e1232, type: 2}
  - {fileID: 11400000, guid: d9ab40dbe80b3e3a983f8daff0dcb561, type: 2}
  - {fileID: 11400000, guid: 89ce264f3e4f3f925aa385008fd8dcc8, type: 2}
  - {fileID: 11400000, guid: ccbe4bbd777e982cba6200687de99f13, type: 2}
  m_BuildSettings:
    m_CompileScriptsInVirtualMode: 0
    m_CleanupStreamingAssetsAfterBuilds: 1
    m_LogResourceManagerExceptions: 1
    m_BundleBuildPath: Temp/com.unity.addressables/AssetBundles
  m_ProfileSettings:
    m_Profiles:
    - m_InheritedParent: 
      m_Id: cc16e29959624af498ed226ba7c2596d
      m_ProfileName: Default
      m_Values:
      - m_Id: 15864f9aeee65ab4fb4e6d6da954587c
        m_Value: '[UnityEditor.EditorUserBuildSettings.activeBuildTarget]'
      - m_Id: b928c5f398d322e409d7a008d3d4d8e7
        m_Value: '[UnityEngine.AddressableAssets.Addressables.BuildPath]/[BuildTarget]'
      - m_Id: ed0e01594f668b34ca8ab11a2e739677
        m_Value: '{UnityEngine.AddressableAssets.Addressables.RuntimePath}/[BuildTarget]'
      - m_Id: 9e3ad696635d3334585ab02afcc8d840
        m_Value: ServerData/[BuildTarget]
      - m_Id: eca7c74ee1ab80e498c6d39103ea2ac6
        m_Value: http://[PrivateIpAddress]:[HostingServicePort]
    m_ProfileEntryNames:
    - m_Id: 15864f9aeee65ab4fb4e6d6da954587c
      m_Name: BuildTarget
      m_InlineUsage: 0
    - m_Id: b928c5f398d322e409d7a008d3d4d8e7
      m_Name: Local.BuildPath
      m_InlineUsage: 0
    - m_Id: ed0e01594f668b34ca8ab11a2e739677
      m_Name: Local.LoadPath
      m_InlineUsage: 0
    - m_Id: 9e3ad696635d3334585ab02afcc8d840
      m_Name: Remote.BuildPath
      m_InlineUsage: 0
    - m_Id: eca7c74ee1ab80e498c6d39103ea2ac6
      m_Name: Remote.LoadPath
      m_InlineUsage: 0
    m_ProfileVersion: 1
  m_LabelTable:
    m_LabelNames:
    - default
    - Locale
    - Locale-en
    - Locale-pt
    - Preload
  m_SchemaTemplates: []
  m_GroupTemplateObjects:
  - {fileID: 11400000, guid: 2253e039c7ca41e46bdb2b21900b0564, type: 2}
  m_InitializationObjects: []
  m_CertificateHandlerType:
    m_AssemblyName: 
    m_ClassName: 
  m_ActivePlayerDataBuilderIndex: 3
  m_DataBuilders:
  - {fileID: 11400000, guid: 6e636743ee7bacb4984ddca2adc8afb2, type: 2}
  - {fileID: 11400000, guid: eb21eb8048031c04a948548569e6c1fb, type: 2}
  - {fileID: 11400000, guid: 643bef2630ed3a9468514ff86267e5d9, type: 2}
  - {fileID: 11400000, guid: 30ac38eabcf6f204bb14813a5ede5aa3, type: 2}
  m_ActiveProfileId: cc16e29959624af498ed226ba7c2596d
  m_HostingServicesManager:
    m_HostingServiceInfos: []
    m_Settings: {fileID: 11400000}
    m_NextInstanceId: 0
    m_RegisteredServiceTypeRefs: []
