%YAML 1.1
%TAG !u! tag:unity3d.com,2011:
--- !u!74 &7400000
AnimationClip:
  m_ObjectHideFlags: 0
  m_CorrespondingSourceObject: {fileID: 0}
  m_PrefabInstance: {fileID: 0}
  m_PrefabAsset: {fileID: 0}
  m_Name: Orb
  serializedVersion: 6
  m_Legacy: 0
  m_Compressed: 0
  m_UseHighQualityCurve: 1
  m_RotationCurves: []
  m_CompressedRotationCurves: []
  m_EulerCurves: []
  m_PositionCurves: []
  m_ScaleCurves: []
  m_FloatCurves: []
  m_PPtrCurves:
  - curve:
    - time: 0
      value: {fileID: 21300000, guid: 50f496cb59ad5a54b9ceb97b8da525ac, type: 3}
    - time: 0.083333336
      value: {fileID: 21300000, guid: d104575799ee11440a276114d6ecbab1, type: 3}
    - time: 0.15
      value: {fileID: 21300000, guid: 685b52aa4a66b2746962d18f14c013bf, type: 3}
    - time: 0.25
      value: {fileID: 21300000, guid: 267e7edff58b33340bc5ac45af2627ef, type: 3}
    - time: 0.28333333
      value: {fileID: 21300000, guid: 41decc63804147a45b80927520e06484, type: 3}
    - time: 0.38333333
      value: {fileID: 21300000, guid: 8956555a36d2b0e4aae5834e9491ab08, type: 3}
    - time: 0.46666667
      value: {fileID: 21300000, guid: 10cdbadd26423614abdd397d5fefd92a, type: 3}
    - time: 0.5833333
      value: {fileID: 21300000, guid: eebbfe28c8a1d8a418e4603d74bf7e4f, type: 3}
    - time: 0.65
      value: {fileID: 21300000, guid: c84ebc83f717e0647bd0f9ead81470d5, type: 3}
    - time: 0.73333335
      value: {fileID: 21300000, guid: 10998a43b7cbd7d409578678a64e9e22, type: 3}
    - time: 0.8
      value: {fileID: 21300000, guid: 7cd8bc668113807469ccb80837f0e802, type: 3}
    - time: 0.8833333
      value: {fileID: 21300000, guid: e0bf4b80085a98c40b8eea4a01c4256b, type: 3}
    - time: 0.98333335
      value: {fileID: 21300000, guid: 8520163f09e2476448b09cd1e8854487, type: 3}
    - time: 1.0166667
      value: {fileID: 21300000, guid: a3915dfe98b745e48963d19b10b7d119, type: 3}
    - time: 1.1166667
      value: {fileID: 21300000, guid: 19e91235b3315c64599a3f8b860626fb, type: 3}
    - time: 1.2
      value: {fileID: 21300000, guid: f62e4c2e1c08a4e438821854a0e4e3db, type: 3}
    - time: 1.2666667
      value: {fileID: 21300000, guid: 9607390c996e13a41afe7ca657cc4b77, type: 3}
    - time: 1.35
      value: {fileID: 21300000, guid: 0eb263120aebe3642991e829eaca6e5f, type: 3}
    - time: 1.4166666
      value: {fileID: 21300000, guid: f3d615592a8f4204cab999828da304eb, type: 3}
    - time: 1.5333333
      value: {fileID: 21300000, guid: 448e4f28f077e304e95b5a043209a08c, type: 3}
    - time: 1.6166667
      value: {fileID: 21300000, guid: 56ae600065c4c7a4fa33af8c24ff6a8f, type: 3}
    - time: 1.7166667
      value: {fileID: 21300000, guid: 40c06b2c3b185984e80706859aa1249a, type: 3}
    - time: 1.75
      value: {fileID: 21300000, guid: 1d38cf0bc60cd654e8b51b7e8acbc605, type: 3}
    - time: 1.85
      value: {fileID: 21300000, guid: 8cdbc607abdf70e4598a70e2bc7ca558, type: 3}
    - time: 1.9166666
      value: {fileID: 21300000, guid: 8be06cf0f2b32f3428c9265055b8c4b6, type: 3}
    - time: 2
      value: {fileID: 21300000, guid: 50f496cb59ad5a54b9ceb97b8da525ac, type: 3}
    attribute: m_Sprite
    path: 
    classID: 114
    script: {fileID: 11500000, guid: fe87c0e1cc204ed48ad3b37840f39efc, type: 3}
  m_SampleRate: 60
  m_WrapMode: 0
  m_Bounds:
    m_Center: {x: 0, y: 0, z: 0}
    m_Extent: {x: 0, y: 0, z: 0}
  m_ClipBindingConstant:
    genericBindings:
    - serializedVersion: 2
      path: 0
      attribute: 2015549526
      script: {fileID: 11500000, guid: fe87c0e1cc204ed48ad3b37840f39efc, type: 3}
      typeID: 114
      customType: 0
      isPPtrCurve: 1
    pptrCurveMapping:
    - {fileID: 21300000, guid: 50f496cb59ad5a54b9ceb97b8da525ac, type: 3}
    - {fileID: 21300000, guid: d104575799ee11440a276114d6ecbab1, type: 3}
    - {fileID: 21300000, guid: 685b52aa4a66b2746962d18f14c013bf, type: 3}
    - {fileID: 21300000, guid: 267e7edff58b33340bc5ac45af2627ef, type: 3}
    - {fileID: 21300000, guid: 41decc63804147a45b80927520e06484, type: 3}
    - {fileID: 21300000, guid: 8956555a36d2b0e4aae5834e9491ab08, type: 3}
    - {fileID: 21300000, guid: 10cdbadd26423614abdd397d5fefd92a, type: 3}
    - {fileID: 21300000, guid: eebbfe28c8a1d8a418e4603d74bf7e4f, type: 3}
    - {fileID: 21300000, guid: c84ebc83f717e0647bd0f9ead81470d5, type: 3}
    - {fileID: 21300000, guid: 10998a43b7cbd7d409578678a64e9e22, type: 3}
    - {fileID: 21300000, guid: 7cd8bc668113807469ccb80837f0e802, type: 3}
    - {fileID: 21300000, guid: e0bf4b80085a98c40b8eea4a01c4256b, type: 3}
    - {fileID: 21300000, guid: 8520163f09e2476448b09cd1e8854487, type: 3}
    - {fileID: 21300000, guid: a3915dfe98b745e48963d19b10b7d119, type: 3}
    - {fileID: 21300000, guid: 19e91235b3315c64599a3f8b860626fb, type: 3}
    - {fileID: 21300000, guid: f62e4c2e1c08a4e438821854a0e4e3db, type: 3}
    - {fileID: 21300000, guid: 9607390c996e13a41afe7ca657cc4b77, type: 3}
    - {fileID: 21300000, guid: 0eb263120aebe3642991e829eaca6e5f, type: 3}
    - {fileID: 21300000, guid: f3d615592a8f4204cab999828da304eb, type: 3}
    - {fileID: 21300000, guid: 448e4f28f077e304e95b5a043209a08c, type: 3}
    - {fileID: 21300000, guid: 56ae600065c4c7a4fa33af8c24ff6a8f, type: 3}
    - {fileID: 21300000, guid: 40c06b2c3b185984e80706859aa1249a, type: 3}
    - {fileID: 21300000, guid: 1d38cf0bc60cd654e8b51b7e8acbc605, type: 3}
    - {fileID: 21300000, guid: 8cdbc607abdf70e4598a70e2bc7ca558, type: 3}
    - {fileID: 21300000, guid: 8be06cf0f2b32f3428c9265055b8c4b6, type: 3}
    - {fileID: 21300000, guid: 50f496cb59ad5a54b9ceb97b8da525ac, type: 3}
  m_AnimationClipSettings:
    serializedVersion: 2
    m_AdditiveReferencePoseClip: {fileID: 0}
    m_AdditiveReferencePoseTime: 0
    m_StartTime: 0
    m_StopTime: 2.0166667
    m_OrientationOffsetY: 0
    m_Level: 0
    m_CycleOffset: 0
    m_HasAdditiveReferencePose: 0
    m_LoopTime: 1
    m_LoopBlend: 0
    m_LoopBlendOrientation: 0
    m_LoopBlendPositionY: 0
    m_LoopBlendPositionXZ: 0
    m_KeepOriginalOrientation: 0
    m_KeepOriginalPositionY: 1
    m_KeepOriginalPositionXZ: 0
    m_HeightFromFeet: 0
    m_Mirror: 0
  m_EditorCurves: []
  m_EulerEditorCurves: []
  m_HasGenericRootTransform: 0
  m_HasMotionFloatCurves: 0
  m_Events: []
