Vanish,Sumir: Carta desaparece até o final da batalha
Enthuse,Entusiasmar: Depois de usar aumenta o poder da carta
Unite,Unir: Ativa efeito se as outras duas cartas forem de ataque
Sacrifice,Sacrifício: Descarta uma carta aleatória da mão
Strengthen,Fortalecer: Aumenta o poder da carta a cada turno na mão
Bravery,Coragem: Se estiver em slot sem modificador
Duplicate,Duplicar: Adiciona uma cópia dessa carta no seu deck após uso
Fixed,Fixada: Efeito aplicado enquanto estiver na sua mão
Strength,Força: 1 Ponto bônus de dano para cada 1 ponto de força
PiercingMod,Perfurar: Ataque ignora defesa
