%YAML 1.1
%TAG !u! tag:unity3d.com,2011:
--- !u!114 &11400000
MonoBehaviour:
  m_ObjectHideFlags: 0
  m_CorrespondingSourceObject: {fileID: 0}
  m_PrefabInstance: {fileID: 0}
  m_PrefabAsset: {fileID: 0}
  m_GameObject: {fileID: 0}
  m_Enabled: 1
  m_EditorHideFlags: 0
  m_Script: {fileID: 11500000, guid: e9620f8c34305754d8cc9a7e49e852d9, type: 3}
  m_Name: EffectsExplainer_pt
  m_EditorClassIdentifier: 
  m_LocaleId:
    m_Code: pt
  m_SharedData: {fileID: 11400000, guid: fed99355d4cbbd7b8a3a1aae4e1d13f4, type: 2}
  m_Metadata:
    m_Items: []
  m_TableData:
  - m_Id: 38067994624
    m_Localized: "<color=#FFDA59>Sumir:</color> Carta desaparece at\xE9 o final da
      batalha."
    m_Metadata:
      m_Items: []
  - m_Id: 550381256704
    m_Localized: <color=#FFDA59>Entusiasmar:</color> Depois de usar aumenta o poder
      da carta.
    m_Metadata:
      m_Items: []
  - m_Id: 758209019904
    m_Localized: "<color=#FFDA59>Unir:</color> Se as outras duas cartas na m\xE3o
      forem de Ataque."
    m_Metadata:
      m_Items: []
  - m_Id: 964300341248
    m_Localized: "<color=#FFDA59>Sacrificio:</color> Descarta uma carta aleat\xF3ria
      da m\xE3o."
    m_Metadata:
      m_Items: []
  - m_Id: 1286871678976
    m_Localized: "<color=#FFDA59>Fortalecer:</color> Aumenta o poder da carta a cada
      turno na m\xE3o."
    m_Metadata:
      m_Items: []
  - m_Id: 1565218275328
    m_Localized: <color=#FFDA59>Coragem:</color> Se estiver em um slot sem Modificador.
    m_Metadata:
      m_Items: []
  - m_Id: 1760135970816
    m_Localized: "<color=#FFDA59>Duplicar:</color> Adiciona uma c\xF3pia dessa carta
      no seu deck."
    m_Metadata:
      m_Items: []
  - m_Id: 1960569176064
    m_Localized: "<color=#FFDA59>Fixada:</color> Efeito ativo enquanto estiver na
      sua m\xE3o."
    m_Metadata:
      m_Items: []
  - m_Id: 2112843382784
    m_Localized: "<color=#FFDA59>For\xE7a:</color> Causa dano adicional em cada Ataque."
    m_Metadata:
      m_Items: []
  - m_Id: 2162688491520
    m_Localized: "<color=#FFDA59>Perfurar:</color> Ataque ignora a Prote\xE7\xE3o
      do inimigo"
    m_Metadata:
      m_Items: []
  references:
    version: 1
