%YAML 1.1
%TAG !u! tag:unity3d.com,2011:
--- !u!114 &11400000
MonoBehaviour:
  m_ObjectHideFlags: 0
  m_CorrespondingSourceObject: {fileID: 0}
  m_PrefabInstance: {fileID: 0}
  m_PrefabAsset: {fileID: 0}
  m_GameObject: {fileID: 0}
  m_Enabled: 1
  m_EditorHideFlags: 0
  m_Script: {fileID: 11500000, guid: 6316576d1d64d2f4895841ea08c8f4cf, type: 3}
  m_Name: CU_HAB_VeggieSoup
  m_EditorClassIdentifier: 
  description: 
  cardPrefab: {fileID: 3909049224605205197, guid: 1db19efb07586e04d82a06eb050889c7,
    type: 3}
