%YAML 1.1
%TAG !u! tag:unity3d.com,2011:
--- !u!114 &11400000
MonoBehaviour:
  m_ObjectHideFlags: 0
  m_CorrespondingSourceObject: {fileID: 0}
  m_PrefabInstance: {fileID: 0}
  m_PrefabAsset: {fileID: 0}
  m_GameObject: {fileID: 0}
  m_Enabled: 1
  m_EditorHideFlags: 0
  m_Script: {fileID: 11500000, guid: 5b11a58205ec3474ca216360e9fa74a8, type: 3}
  m_Name: EnemyActionExplainer Shared Data
  m_EditorClassIdentifier: 
  m_TableCollectionName: EnemyActionExplainer
  m_TableCollectionNameGuidString: a546166d53e17b069932eb0ce35cd080
  m_Entries:
  - m_Id: 1709598801920
    m_Key: enemyAttack
    m_Metadata:
      m_Items: []
  - m_Id: 2145907081216
    m_Key: enemyClumsiness
    m_Metadata:
      m_Items: []
  - m_Id: 3296840876032
    m_Key: enemyCurse
    m_Metadata:
      m_Items: []
  - m_Id: 2339834920960
    m_Key: enemyGainStrength
    m_Metadata:
      m_Items: []
  - m_Id: 2024788164608
    m_Key: enemyHeal
    m_Metadata:
      m_Items: []
  - m_Id: 2266539458560
    m_Key: enemyNastyPresent
    m_Metadata:
      m_Items: []
  - m_Id: 1955649257472
    m_Key: enemyPoison
    m_Metadata:
      m_Items: []
  - m_Id: 1888779468800
    m_Key: enemyProtect
    m_Metadata:
      m_Items: []
  - m_Id: 2666285989888
    m_Key: enemySlotBlock
    m_Metadata:
      m_Items: []
  - m_Id: 3184492249088
    m_Key: enemySpecialProtect
    m_Metadata:
      m_Items: []
  - m_Id: 2607976775680
    m_Key: enemyTiredness
    m_Metadata:
      m_Items: []
  - m_Id: 3911692288000
    m_Key: enemyDestruction
    m_Metadata:
      m_Items: []
  m_Metadata:
    m_Items: []
  m_KeyGenerator:
    id: 0
  references:
    version: 1
    00000000:
      type: {class: DistributedUIDGenerator, ns: UnityEngine.Localization.Tables,
        asm: Unity.Localization}
      data:
        m_CustomEpoch: 1675015225153
