enemyAttack,Causa essa quantidade de dano físico no jogador
enemyProtect,Ganha essa quantidade de proteção
enemyPoison,O inimigo não era pra tar dando poison
enemyHeal,O inimigo não era pra ter cura tbn
enemyClumsiness,Estabanado: Pelos próximos X turnos troca as cartas da mão do jogador de lugar.
enemyNastyPresent,Presente desagradável: Coloca X cartas “presente desagradável” no deck to jogador
enemyGainStrength,Ganha +X de força. Cada 1 ponto de força aumenta o dano do ataque em 1
enemyTiredness,Cansaço: Pelos próximos X turnos o jogador começa com -1 energia
enemySlotBlock,Pelos próximos X turnos impede 2 cartas do jogador de serem jogadas
enemySpecialProtect,O inimigo consegue X de proteção especial. O inimigo não poderá receber uma quantidade maior de dano que a proteção especial
enemyCurse,Curse: Pelos próximos X turnos o jogador não poderá jogar duas cartas seguidas do mesmo slot
enemyDestruction,"Destruction: Pelos próximos X turnos, no final do turno do jogador, as cartas da mão vão para o cemitério."
